Cycling in Canberra – Johann Wagner
…
Let’s make those minor variable changes.

clean_bike_data <- raw_bike_data |> 
  mutate(
    date_time = date_time |> 
      str_sub(1, 13) |> 
      as_datetime(format = "%Y-%m-%dT%H"),
    across(
      !date_time,
      as.integer
    )
  )
clean_bike_data

# A tibble: 46,200 × 4
   date_time           count macarthur_ave_display_cycl…¹ macarthur_ave_displa…²
   <dttm>              <int>                        <int>                  <int>
 1 2017-11-22 00:00:00    13                            3                     10
 2 2017-11-22 01:00:00     2                            2                      0
 3 2017-11-22 02:00:00     0                            0                      0
 4 2017-11-22 03:00:00     0                            0                      0
 5 2017-11-22 04:00:00     1                            1                      0
 6 2017-11-22 05:00:00     9                            5                      4
 7 2017-11-22 06:00:00    28                           25                      3
 8 2017-11-22 07:00:00   157                          149                      8
 9 2017-11-22 08:00:00   358                          315                     43
10 2017-11-22 09:00:00   144                          131                     13
# ℹ 46,190 more rows
# ℹ abbreviated names: ¹​macarthur_ave_display_cyclist_in,
#   ²​macarthur_ave_display_cyclist_out
…
date_time
0
1
2017-11-22
2023-02-28 23:00:00
2020-07-11 11:30:00
46200

Time series

Let’s see how the number of bikes changes across time.

clean_bike_data

# A tibble: 46,200 × 4
   date_time           count macarthur_ave_display_cycl…¹ macarthur_ave_displa…²
   <dttm>              <int>                        <int>                  <int>
 1 2017-11-22 00:00:00    13                            3                     10
 2 2017-11-22 01:00:00     2                            2                      0
 3 2017-11-22 02:00:00     0                            0                      0
 4 2017-11-22 03:00:00     0                            0                      0
 5 2017-11-22 04:00:00     1                            1                      0
 6 2017-11-22 05:00:00     9                            5                      4
 7 2017-11-22 06:00:00    28                           25                      3
 8 2017-11-22 07:00:00   157                          149                      8
 9 2017-11-22 08:00:00   358                          315                     43
10 2017-11-22 09:00:00   144                          131                     13
# ℹ 46,190 more rows
# ℹ abbreviated names: ¹​macarthur_ave_display_cyclist_in,
#   ²​macarthur_ave_display_cyclist_out
…
