Johann Wagner - Spotify Exploratory Data Analysis - Streaming History Data
…
It seems like the data mostly makes sense and that there are a wide range of song names and artist names.

Reshape Data: Streaming per day

Let’s reshape the data so that we can see how much I have streamed per day.

STREAMING_HISTORY_PER_DAY <- CLEANED_STREAMING_HISTORY |> 
  group_by(streaming_datetime) |>
  summarise(
    total_hours_played = sum(min_played / 60)
  )
STREAMING_HISTORY_PER_DAY

# A tibble: 337 × 2
   streaming_datetime total_hours_played
   <date>                          <dbl>
 1 2022-07-11                      2.41 
 2 2022-07-12                      5.31 
 3 2022-07-13                      2.78 
 4 2022-07-14                      3.52 
 5 2022-07-15                      4.38 
 6 2022-07-16                      9.42 
 7 2022-07-17                      4.99 
 8 2022-07-18                      3.64 
 9 2022-07-19                      3.78 
10 2022-07-20                      0.147
# ℹ 327 more rows
…
